{"failedCount":0,"prefixedPath":"src\/test\/java\/features\/queryParameter.feature","packageQualifiedName":"src.test.java.features.queryParameter","loopIndex":-1,"relativePath":"src\/test\/java\/features\/queryParameter.feature","scenarioResults":[{"sectionIndex":0,"stepResults":[{"result":{"nanos":56220100,"millis":56.2201,"status":"passed"},"step":{"line":4,"prefix":"*","index":0,"text":"def query = {status:'active', gender:'male'}"}},{"result":{"nanos":8612500,"millis":8.6125,"status":"passed"},"step":{"line":5,"prefix":"Given","index":1,"text":"url baseUrl+'\/public\/v1\/users'"}},{"result":{"nanos":6409800,"millis":6.4098,"status":"passed"},"step":{"line":6,"prefix":"And","index":2,"text":"params query"}},{"result":{"nanos":1637657000,"millis":1637.657,"status":"passed"},"step":{"line":7,"prefix":"When","index":3,"text":"method GET"},"stepLog":"15:37:08.925 request:\n1 > GET https:\/\/gorest.co.in\/public\/v1\/users?gender=male&status=active\n1 > Host: gorest.co.in\n1 > Connection: Keep-Alive\n1 > User-Agent: Apache-HttpClient\/4.5.13 (Java\/17.0.10)\n1 > Accept-Encoding: gzip,deflate\n\n\n15:37:10.084 response time in milliseconds: 1153\n1 < 200\n1 < Date: Tue, 30 Jul 2024 10:07:10 GMT\n1 < Content-Type: application\/json; charset=utf-8\n1 < Transfer-Encoding: chunked\n1 < Connection: keep-alive\n1 < Cache-Control: max-age=0, private, must-revalidate\n1 < etag: W\/\"3c045ec7e6fb5385bd8d88b178eed929\"\n1 < referrer-policy: strict-origin-when-cross-origin\n1 < vary: Origin\n1 < x-content-type-options: nosniff\n1 < x-download-options: noopen\n1 < x-frame-options: SAMEORIGIN\n1 < x-permitted-cross-domain-policies: none\n1 < x-request-id: ed6e9f08-7521-4424-9e9d-a4d3a1b5571d\n1 < x-runtime: 0.049695\n1 < x-xss-protection: 0\n1 < CF-Cache-Status: DYNAMIC\n1 < Report-To: {\"endpoints\":[{\"url\":\"https:\\\/\\\/a.nel.cloudflare.com\\\/report\\\/v4?s=S4Bue6yMEtmAJGrmFTPt%2FDxC1FuShB8Pi9goctK2bVRCObKxZmYP5pqxdM%2BvTfeZMl7ZVRs436uh%2FE1DlaIrYm6bozugfd7bCvAqKVdke63m4clFUGPfTBqjs6eIp94%3D\"}],\"group\":\"cf-nel\",\"max_age\":604800}\n1 < NEL: {\"success_fraction\":0,\"report_to\":\"cf-nel\",\"max_age\":604800}\n1 < Server: cloudflare\n1 < CF-RAY: 8ab48a460ba083cb-BRU\n1 < alt-svc: h3=\":443\"; ma=86400\n{\"meta\":{\"pagination\":{\"total\":747,\"pages\":75,\"page\":1,\"limit\":10,\"links\":{\"previous\":null,\"current\":\"https:\/\/gorest.co.in\/public\/v1\/users?page=1\",\"next\":\"https:\/\/gorest.co.in\/public\/v1\/users?page=2\"}}},\"data\":[{\"id\":7225651,\"name\":\"Anuja Panicker\",\"email\":\"panicker_anuja@ratke-spencer.test\",\"gender\":\"male\",\"status\":\"active\"},{\"id\":7225642,\"name\":\"Gouranga Mukhopadhyay V\",\"email\":\"gouranga_v_mukhopadhyay@raynor.test\",\"gender\":\"male\",\"status\":\"active\"},{\"id\":7225632,\"name\":\"Sarvin Menon\",\"email\":\"sarvin_menon@rogahn-wolf.example\",\"gender\":\"male\",\"status\":\"active\"},{\"id\":7225631,\"name\":\"Ramesh Chattopadhyay\",\"email\":\"ramesh_chattopadhyay@predovic.example\",\"gender\":\"male\",\"status\":\"active\"},{\"id\":7225626,\"name\":\"Dr. Vedanga Acharya\",\"email\":\"vedanga_dr_acharya@dicki.test\",\"gender\":\"male\",\"status\":\"active\"},{\"id\":7225625,\"name\":\"Chidananda Nair\",\"email\":\"chidananda_nair@okon.test\",\"gender\":\"male\",\"status\":\"active\"},{\"id\":7225618,\"name\":\"Ghanshyam Jha DO\",\"email\":\"do_ghanshyam_jha@jacobs.example\",\"gender\":\"male\",\"status\":\"active\"},{\"id\":7220110,\"name\":\"Vasudeva Achari\",\"email\":\"achari_vasudeva@botsford-schowalter.example\",\"gender\":\"male\",\"status\":\"active\"},{\"id\":7220107,\"name\":\"Mandaakin Bhat DDS\",\"email\":\"mandaakin_dds_bhat@gleichner-wintheiser.example\",\"gender\":\"male\",\"status\":\"active\"},{\"id\":7220105,\"name\":\"Jahnu Kakkar\",\"email\":\"kakkar_jahnu@zboncak-weber.test\",\"gender\":\"male\",\"status\":\"active\"}]}\n"},{"result":{"nanos":32400,"millis":0.0324,"status":"passed"},"step":{"line":8,"prefix":"Then","index":4,"text":"status 200"}},{"result":{"nanos":10742500,"millis":10.7425,"status":"passed"},"step":{"line":9,"prefix":"*","index":5,"text":"print response"},"stepLog":"15:37:10.100 [print] {\n  \"meta\": {\n    \"pagination\": {\n      \"total\": 747,\n      \"pages\": 75,\n      \"page\": 1,\n      \"limit\": 10,\n      \"links\": {\n        \"previous\": null,\n        \"current\": \"https:\/\/gorest.co.in\/public\/v1\/users?page=1\",\n        \"next\": \"https:\/\/gorest.co.in\/public\/v1\/users?page=2\"\n      }\n    }\n  },\n  \"data\": [\n    {\n      \"id\": 7225651,\n      \"name\": \"Anuja Panicker\",\n      \"email\": \"panicker_anuja@ratke-spencer.test\",\n      \"gender\": \"male\",\n      \"status\": \"active\"\n    },\n    {\n      \"id\": 7225642,\n      \"name\": \"Gouranga Mukhopadhyay V\",\n      \"email\": \"gouranga_v_mukhopadhyay@raynor.test\",\n      \"gender\": \"male\",\n      \"status\": \"active\"\n    },\n    {\n      \"id\": 7225632,\n      \"name\": \"Sarvin Menon\",\n      \"email\": \"sarvin_menon@rogahn-wolf.example\",\n      \"gender\": \"male\",\n      \"status\": \"active\"\n    },\n    {\n      \"id\": 7225631,\n      \"name\": \"Ramesh Chattopadhyay\",\n      \"email\": \"ramesh_chattopadhyay@predovic.example\",\n      \"gender\": \"male\",\n      \"status\": \"active\"\n    },\n    {\n      \"id\": 7225626,\n      \"name\": \"Dr. Vedanga Acharya\",\n      \"email\": \"vedanga_dr_acharya@dicki.test\",\n      \"gender\": \"male\",\n      \"status\": \"active\"\n    },\n    {\n      \"id\": 7225625,\n      \"name\": \"Chidananda Nair\",\n      \"email\": \"chidananda_nair@okon.test\",\n      \"gender\": \"male\",\n      \"status\": \"active\"\n    },\n    {\n      \"id\": 7225618,\n      \"name\": \"Ghanshyam Jha DO\",\n      \"email\": \"do_ghanshyam_jha@jacobs.example\",\n      \"gender\": \"male\",\n      \"status\": \"active\"\n    },\n    {\n      \"id\": 7220110,\n      \"name\": \"Vasudeva Achari\",\n      \"email\": \"achari_vasudeva@botsford-schowalter.example\",\n      \"gender\": \"male\",\n      \"status\": \"active\"\n    },\n    {\n      \"id\": 7220107,\n      \"name\": \"Mandaakin Bhat DDS\",\n      \"email\": \"mandaakin_dds_bhat@gleichner-wintheiser.example\",\n      \"gender\": \"male\",\n      \"status\": \"active\"\n    },\n    {\n      \"id\": 7220105,\n      \"name\": \"Jahnu Kakkar\",\n      \"email\": \"kakkar_jahnu@zboncak-weber.test\",\n      \"gender\": \"male\",\n      \"status\": \"active\"\n    }\n  ]\n}\n \n"}],"executorName":"main","line":3,"name":"get all active users","description":"","durationMillis":1719.6743,"startTime":1722334028103,"failed":false,"refId":"[1:3]","endTime":1722334030101,"exampleIndex":-1}],"callDepth":0,"name":"Verify how tpo pass query parameter","description":"","resultDate":"2024-07-30 03:37:10 pm","durationMillis":1719.6743,"passedCount":1}