{"failedCount":0,"prefixedPath":"src\/test\/java\/features\/queryParameter.feature","packageQualifiedName":"src.test.java.features.queryParameter","loopIndex":-1,"relativePath":"src\/test\/java\/features\/queryParameter.feature","scenarioResults":[{"sectionIndex":0,"stepResults":[{"result":{"nanos":47236600,"millis":47.2366,"status":"passed"},"step":{"line":4,"prefix":"*","index":0,"text":"def query = {status:'active'}"}},{"result":{"nanos":14769000,"millis":14.769,"status":"passed"},"step":{"line":5,"prefix":"Given","index":1,"text":"url baseUrl+'\/public\/v1\/users'"}},{"result":{"nanos":21874500,"millis":21.8745,"status":"passed"},"step":{"line":6,"prefix":"And","index":2,"text":"params query"}},{"result":{"nanos":1844008400,"millis":1844.0084,"status":"passed"},"step":{"line":7,"prefix":"When","index":3,"text":"method GET"},"stepLog":"15:36:02.868 request:\n1 > GET https:\/\/gorest.co.in\/public\/v1\/users?status=active\n1 > Host: gorest.co.in\n1 > Connection: Keep-Alive\n1 > User-Agent: Apache-HttpClient\/4.5.13 (Java\/17.0.10)\n1 > Accept-Encoding: gzip,deflate\n\n\n15:36:04.377 response time in milliseconds: 1506\n1 < 200\n1 < Date: Tue, 30 Jul 2024 10:06:04 GMT\n1 < Content-Type: application\/json; charset=utf-8\n1 < Transfer-Encoding: chunked\n1 < Connection: keep-alive\n1 < Cache-Control: max-age=0, private, must-revalidate\n1 < etag: W\/\"8ca5d31618fd4a9f053d7b0bdff1de3c\"\n1 < referrer-policy: strict-origin-when-cross-origin\n1 < vary: Origin\n1 < x-content-type-options: nosniff\n1 < x-download-options: noopen\n1 < x-frame-options: SAMEORIGIN\n1 < x-permitted-cross-domain-policies: none\n1 < x-request-id: 3453cbb2-9d0b-4f86-a82f-dd2ac8d145b0\n1 < x-runtime: 0.103888\n1 < x-xss-protection: 0\n1 < CF-Cache-Status: DYNAMIC\n1 < Report-To: {\"endpoints\":[{\"url\":\"https:\\\/\\\/a.nel.cloudflare.com\\\/report\\\/v4?s=WZiMG6%2BqFG1L2AeD%2F0RVSg0QLer7r7N3BCNQ2CRC9R0IqBuJu4QR86Q0h0xgYwFXe2ouRDyItDWN0dLia%2BpYYGjFjwSPmhXpMqN7yRdfBitQNXxysIfZiedBtIDBR7s%3D\"}],\"group\":\"cf-nel\",\"max_age\":604800}\n1 < NEL: {\"success_fraction\":0,\"report_to\":\"cf-nel\",\"max_age\":604800}\n1 < Server: cloudflare\n1 < CF-RAY: 8ab488a94e6b047d-CDG\n1 < alt-svc: h3=\":443\"; ma=86400\n{\"meta\":{\"pagination\":{\"total\":1476,\"pages\":148,\"page\":1,\"limit\":10,\"links\":{\"previous\":null,\"current\":\"https:\/\/gorest.co.in\/public\/v1\/users?page=1\",\"next\":\"https:\/\/gorest.co.in\/public\/v1\/users?page=2\"}}},\"data\":[{\"id\":7225651,\"name\":\"Anuja Panicker\",\"email\":\"panicker_anuja@ratke-spencer.test\",\"gender\":\"male\",\"status\":\"active\"},{\"id\":7225648,\"name\":\"Rep. Oormila Khan\",\"email\":\"khan_rep_oormila@veum.test\",\"gender\":\"female\",\"status\":\"active\"},{\"id\":7225645,\"name\":\"Agneya Menon\",\"email\":\"agneya_menon@kautzer-harris.test\",\"gender\":\"female\",\"status\":\"active\"},{\"id\":7225644,\"name\":\"Vinay Acharya\",\"email\":\"vinay_acharya@kuhn-lemke.test\",\"gender\":\"female\",\"status\":\"active\"},{\"id\":7225642,\"name\":\"Gouranga Mukhopadhyay V\",\"email\":\"gouranga_v_mukhopadhyay@raynor.test\",\"gender\":\"male\",\"status\":\"active\"},{\"id\":7225641,\"name\":\"Bakula Joshi Sr.\",\"email\":\"bakula_joshi_sr@johnson.test\",\"gender\":\"female\",\"status\":\"active\"},{\"id\":7225638,\"name\":\"Keerti Dutta\",\"email\":\"keerti_dutta@rempel.example\",\"gender\":\"female\",\"status\":\"active\"},{\"id\":7225636,\"name\":\"Chandraswaroopa Nehru\",\"email\":\"chandraswaroopa_nehru@adams.test\",\"gender\":\"female\",\"status\":\"active\"},{\"id\":7225632,\"name\":\"Sarvin Menon\",\"email\":\"sarvin_menon@rogahn-wolf.example\",\"gender\":\"male\",\"status\":\"active\"},{\"id\":7225631,\"name\":\"Ramesh Chattopadhyay\",\"email\":\"ramesh_chattopadhyay@predovic.example\",\"gender\":\"male\",\"status\":\"active\"}]}\n"},{"result":{"nanos":21900,"millis":0.0219,"status":"passed"},"step":{"line":8,"prefix":"Then","index":4,"text":"status 200"}},{"result":{"nanos":8948600,"millis":8.9486,"status":"passed"},"step":{"line":9,"prefix":"*","index":5,"text":"print response"},"stepLog":"15:36:04.389 [print] {\n  \"meta\": {\n    \"pagination\": {\n      \"total\": 1476,\n      \"pages\": 148,\n      \"page\": 1,\n      \"limit\": 10,\n      \"links\": {\n        \"previous\": null,\n        \"current\": \"https:\/\/gorest.co.in\/public\/v1\/users?page=1\",\n        \"next\": \"https:\/\/gorest.co.in\/public\/v1\/users?page=2\"\n      }\n    }\n  },\n  \"data\": [\n    {\n      \"id\": 7225651,\n      \"name\": \"Anuja Panicker\",\n      \"email\": \"panicker_anuja@ratke-spencer.test\",\n      \"gender\": \"male\",\n      \"status\": \"active\"\n    },\n    {\n      \"id\": 7225648,\n      \"name\": \"Rep. Oormila Khan\",\n      \"email\": \"khan_rep_oormila@veum.test\",\n      \"gender\": \"female\",\n      \"status\": \"active\"\n    },\n    {\n      \"id\": 7225645,\n      \"name\": \"Agneya Menon\",\n      \"email\": \"agneya_menon@kautzer-harris.test\",\n      \"gender\": \"female\",\n      \"status\": \"active\"\n    },\n    {\n      \"id\": 7225644,\n      \"name\": \"Vinay Acharya\",\n      \"email\": \"vinay_acharya@kuhn-lemke.test\",\n      \"gender\": \"female\",\n      \"status\": \"active\"\n    },\n    {\n      \"id\": 7225642,\n      \"name\": \"Gouranga Mukhopadhyay V\",\n      \"email\": \"gouranga_v_mukhopadhyay@raynor.test\",\n      \"gender\": \"male\",\n      \"status\": \"active\"\n    },\n    {\n      \"id\": 7225641,\n      \"name\": \"Bakula Joshi Sr.\",\n      \"email\": \"bakula_joshi_sr@johnson.test\",\n      \"gender\": \"female\",\n      \"status\": \"active\"\n    },\n    {\n      \"id\": 7225638,\n      \"name\": \"Keerti Dutta\",\n      \"email\": \"keerti_dutta@rempel.example\",\n      \"gender\": \"female\",\n      \"status\": \"active\"\n    },\n    {\n      \"id\": 7225636,\n      \"name\": \"Chandraswaroopa Nehru\",\n      \"email\": \"chandraswaroopa_nehru@adams.test\",\n      \"gender\": \"female\",\n      \"status\": \"active\"\n    },\n    {\n      \"id\": 7225632,\n      \"name\": \"Sarvin Menon\",\n      \"email\": \"sarvin_menon@rogahn-wolf.example\",\n      \"gender\": \"male\",\n      \"status\": \"active\"\n    },\n    {\n      \"id\": 7225631,\n      \"name\": \"Ramesh Chattopadhyay\",\n      \"email\": \"ramesh_chattopadhyay@predovic.example\",\n      \"gender\": \"male\",\n      \"status\": \"active\"\n    }\n  ]\n}\n \n"}],"executorName":"main","line":3,"name":"get all active users","description":"","durationMillis":1936.859,"startTime":1722333962167,"failed":false,"refId":"[1:3]","endTime":1722333964391,"exampleIndex":-1}],"callDepth":0,"name":"Verify how tpo pass query parameter","description":"","resultDate":"2024-07-30 03:36:04 pm","durationMillis":1936.859,"passedCount":1}