{"failedCount":0,"prefixedPath":"src\/test\/java\/features\/queryParameter.feature","packageQualifiedName":"src.test.java.features.queryParameter","loopIndex":-1,"relativePath":"src\/test\/java\/features\/queryParameter.feature","scenarioResults":[{"sectionIndex":0,"stepResults":[{"result":{"nanos":57718000,"millis":57.718,"status":"passed"},"step":{"line":4,"prefix":"*","index":0,"text":"def query = {status:'active', gender:'male'}"}},{"result":{"nanos":9581500,"millis":9.5815,"status":"passed"},"step":{"line":5,"prefix":"Given","index":1,"text":"url baseUrl+'\/public\/v1\/users'"}},{"result":{"nanos":7380300,"millis":7.3803,"status":"passed"},"step":{"line":6,"prefix":"And","index":2,"text":"params query"}},{"result":{"nanos":1311050400,"millis":1311.0504,"status":"passed"},"step":{"line":7,"prefix":"When","index":3,"text":"method GET"},"stepLog":"15:40:26.569 request:\n1 > GET https:\/\/gorest.co.in\/public\/v1\/users?gender=male&status=active\n1 > Host: gorest.co.in\n1 > Connection: Keep-Alive\n1 > User-Agent: Apache-HttpClient\/4.5.13 (Java\/17.0.10)\n1 > Accept-Encoding: gzip,deflate\n\n\n15:40:27.543 response time in milliseconds: 970\n1 < 200\n1 < Date: Tue, 30 Jul 2024 10:10:27 GMT\n1 < Content-Type: application\/json; charset=utf-8\n1 < Transfer-Encoding: chunked\n1 < Connection: keep-alive\n1 < Cache-Control: max-age=0, private, must-revalidate\n1 < etag: W\/\"3c045ec7e6fb5385bd8d88b178eed929\"\n1 < referrer-policy: strict-origin-when-cross-origin\n1 < vary: Origin\n1 < x-content-type-options: nosniff\n1 < x-download-options: noopen\n1 < x-frame-options: SAMEORIGIN\n1 < x-permitted-cross-domain-policies: none\n1 < x-request-id: 889123ab-41b0-4d78-bee3-04f1025dd5c8\n1 < x-runtime: 0.050056\n1 < x-xss-protection: 0\n1 < CF-Cache-Status: DYNAMIC\n1 < Report-To: {\"endpoints\":[{\"url\":\"https:\\\/\\\/a.nel.cloudflare.com\\\/report\\\/v4?s=Q4c0NaxXEy5sob%2Fm6bq%2FrV5e5BN%2B77ie84z0XxouQs3SM4KDbIVpUMOigTiqOFbjpjgii%2FPaJVDFP1oxMSXaMaT7tRzB8ya9T4ULf%2FI70gwGkFQw1TcKYMnyu0rtdTY%3D\"}],\"group\":\"cf-nel\",\"max_age\":604800}\n1 < NEL: {\"success_fraction\":0,\"report_to\":\"cf-nel\",\"max_age\":604800}\n1 < Server: cloudflare\n1 < CF-RAY: 8ab48f189a819a2a-FRA\n1 < alt-svc: h3=\":443\"; ma=86400\n{\"meta\":{\"pagination\":{\"total\":747,\"pages\":75,\"page\":1,\"limit\":10,\"links\":{\"previous\":null,\"current\":\"https:\/\/gorest.co.in\/public\/v1\/users?page=1\",\"next\":\"https:\/\/gorest.co.in\/public\/v1\/users?page=2\"}}},\"data\":[{\"id\":7225651,\"name\":\"Anuja Panicker\",\"email\":\"panicker_anuja@ratke-spencer.test\",\"gender\":\"male\",\"status\":\"active\"},{\"id\":7225642,\"name\":\"Gouranga Mukhopadhyay V\",\"email\":\"gouranga_v_mukhopadhyay@raynor.test\",\"gender\":\"male\",\"status\":\"active\"},{\"id\":7225632,\"name\":\"Sarvin Menon\",\"email\":\"sarvin_menon@rogahn-wolf.example\",\"gender\":\"male\",\"status\":\"active\"},{\"id\":7225631,\"name\":\"Ramesh Chattopadhyay\",\"email\":\"ramesh_chattopadhyay@predovic.example\",\"gender\":\"male\",\"status\":\"active\"},{\"id\":7225626,\"name\":\"Dr. Vedanga Acharya\",\"email\":\"vedanga_dr_acharya@dicki.test\",\"gender\":\"male\",\"status\":\"active\"},{\"id\":7225625,\"name\":\"Chidananda Nair\",\"email\":\"chidananda_nair@okon.test\",\"gender\":\"male\",\"status\":\"active\"},{\"id\":7225618,\"name\":\"Ghanshyam Jha DO\",\"email\":\"do_ghanshyam_jha@jacobs.example\",\"gender\":\"male\",\"status\":\"active\"},{\"id\":7220110,\"name\":\"Vasudeva Achari\",\"email\":\"achari_vasudeva@botsford-schowalter.example\",\"gender\":\"male\",\"status\":\"active\"},{\"id\":7220107,\"name\":\"Mandaakin Bhat DDS\",\"email\":\"mandaakin_dds_bhat@gleichner-wintheiser.example\",\"gender\":\"male\",\"status\":\"active\"},{\"id\":7220105,\"name\":\"Jahnu Kakkar\",\"email\":\"kakkar_jahnu@zboncak-weber.test\",\"gender\":\"male\",\"status\":\"active\"}]}\n"},{"result":{"nanos":24600,"millis":0.0246,"status":"passed"},"step":{"line":8,"prefix":"Then","index":4,"text":"status 200"}},{"result":{"nanos":10220700,"millis":10.2207,"status":"passed"},"step":{"line":9,"prefix":"*","index":5,"text":"print response"},"stepLog":"15:40:27.558 [print] {\n  \"meta\": {\n    \"pagination\": {\n      \"total\": 747,\n      \"pages\": 75,\n      \"page\": 1,\n      \"limit\": 10,\n      \"links\": {\n        \"previous\": null,\n        \"current\": \"https:\/\/gorest.co.in\/public\/v1\/users?page=1\",\n        \"next\": \"https:\/\/gorest.co.in\/public\/v1\/users?page=2\"\n      }\n    }\n  },\n  \"data\": [\n    {\n      \"id\": 7225651,\n      \"name\": \"Anuja Panicker\",\n      \"email\": \"panicker_anuja@ratke-spencer.test\",\n      \"gender\": \"male\",\n      \"status\": \"active\"\n    },\n    {\n      \"id\": 7225642,\n      \"name\": \"Gouranga Mukhopadhyay V\",\n      \"email\": \"gouranga_v_mukhopadhyay@raynor.test\",\n      \"gender\": \"male\",\n      \"status\": \"active\"\n    },\n    {\n      \"id\": 7225632,\n      \"name\": \"Sarvin Menon\",\n      \"email\": \"sarvin_menon@rogahn-wolf.example\",\n      \"gender\": \"male\",\n      \"status\": \"active\"\n    },\n    {\n      \"id\": 7225631,\n      \"name\": \"Ramesh Chattopadhyay\",\n      \"email\": \"ramesh_chattopadhyay@predovic.example\",\n      \"gender\": \"male\",\n      \"status\": \"active\"\n    },\n    {\n      \"id\": 7225626,\n      \"name\": \"Dr. Vedanga Acharya\",\n      \"email\": \"vedanga_dr_acharya@dicki.test\",\n      \"gender\": \"male\",\n      \"status\": \"active\"\n    },\n    {\n      \"id\": 7225625,\n      \"name\": \"Chidananda Nair\",\n      \"email\": \"chidananda_nair@okon.test\",\n      \"gender\": \"male\",\n      \"status\": \"active\"\n    },\n    {\n      \"id\": 7225618,\n      \"name\": \"Ghanshyam Jha DO\",\n      \"email\": \"do_ghanshyam_jha@jacobs.example\",\n      \"gender\": \"male\",\n      \"status\": \"active\"\n    },\n    {\n      \"id\": 7220110,\n      \"name\": \"Vasudeva Achari\",\n      \"email\": \"achari_vasudeva@botsford-schowalter.example\",\n      \"gender\": \"male\",\n      \"status\": \"active\"\n    },\n    {\n      \"id\": 7220107,\n      \"name\": \"Mandaakin Bhat DDS\",\n      \"email\": \"mandaakin_dds_bhat@gleichner-wintheiser.example\",\n      \"gender\": \"male\",\n      \"status\": \"active\"\n    },\n    {\n      \"id\": 7220105,\n      \"name\": \"Jahnu Kakkar\",\n      \"email\": \"kakkar_jahnu@zboncak-weber.test\",\n      \"gender\": \"male\",\n      \"status\": \"active\"\n    }\n  ]\n}\n \n"},{"result":{"nanos":716000,"millis":0.716,"status":"passed"},"step":{"line":10,"prefix":"*","index":6,"text":"def jsonResponse = response"}},{"result":{"nanos":3395400,"millis":3.3954,"status":"passed"},"step":{"line":11,"prefix":"*","index":7,"text":"def usercount = jsonResponse.data.length"}},{"result":{"nanos":1358500,"millis":1.3585,"status":"passed"},"step":{"line":12,"prefix":"*","index":8,"text":"print usercount"},"stepLog":"15:40:27.564 [print] 10 \n"}],"executorName":"main","line":3,"name":"get all active users","description":"","durationMillis":1401.4454,"startTime":1722334225968,"failed":false,"refId":"[1:3]","endTime":1722334227565,"exampleIndex":-1}],"callDepth":0,"name":"Verify how tpo pass query parameter","description":"","resultDate":"2024-07-30 03:40:27 pm","durationMillis":1401.4454,"passedCount":1}